<?xml version="1.0" encoding="utf-8"?>
<!-- Generator: Adobe Illustrator 16.0.0, SVG Export Plug-In . SVG Version: 6.00 Build 0)  -->
<!DOCTYPE svg PUBLIC "-//W3C//DTD SVG 1.1//EN" "http://www.w3.org/Graphics/SVG/1.1/DTD/svg11.dtd">
<svg version="1.1" id="圖層_2" xmlns="http://www.w3.org/2000/svg" xmlns:xlink="http://www.w3.org/1999/xlink" x="0px" y="0px"
	 width="120px" height="131px" viewBox="0 0 120 131" enable-background="new 0 0 120 131" xml:space="preserve">
<g>
	<circle fill="#FFE565" cx="60" cy="72.163" r="51.16"/>
	<path fill="#00A4CD" d="M104.844,71.352c0,24.771-20.077,44.851-44.842,44.851c-24.773,0-44.853-20.08-44.853-44.851
		c0-24.571,19.769-44.518,44.264-44.832l-0.769,10.483l23.705-16.857L61.366,0l-0.834,11.359c-0.176-0.002-0.355-0.006-0.529-0.006
		C26.861,11.353,0,38.217,0,71.352c0,33.137,26.861,60.003,60.002,60.003c33.133,0,59.998-26.866,59.998-60.003H104.844z"/>
	<g>
		<path fill="#007AA4" d="M58.984,65.131c-0.355,1.731-0.824,3.072-1.405,4.022c-0.582,0.95-1.33,1.425-2.244,1.425
			c-1.527,0-3.045-1.363-4.555-4.089c-1.527,1.137-3.21,2.158-5.048,3.063l-1.358-2.024c2.104-0.985,3.947-2.073,5.527-3.263
			c-0.444-1.714-0.75-4.479-0.918-8.297h-5.7v3.769c1.358-0.275,2.868-0.657,4.528-1.146l0.053,2.371
			c-1.643,0.479-3.169,0.861-4.581,1.146v6.046c0,0.692-0.142,1.207-0.426,1.545c-0.284,0.337-0.644,0.557-1.079,0.659
			c-0.435,0.102-1.217,0.153-2.344,0.153c-0.843,0-1.669-0.022-2.477-0.066l-0.852-2.583c1.225,0.053,2.229,0.08,3.01,0.08
			c0.834,0,1.323-0.038,1.465-0.113c0.142-0.076,0.213-0.238,0.213-0.486v-4.714c-1.953,0.373-3.742,0.644-5.367,0.812l-0.439-2.264
			c1.758-0.195,3.693-0.506,5.806-0.932v-4.275h-5.727v-2.317h5.727v-3.089c-1.225,0.187-2.77,0.359-4.634,0.519l-1.092-2.264
			c4.608-0.275,8.457-0.99,11.547-2.145l1.385,2.011c-1.723,0.613-3.294,1.065-4.714,1.358v3.609h5.673
			c-0.036-1.101-0.053-3.418-0.053-6.952h2.424c-0.027,2.362-0.027,4.679,0,6.952h7.445v2.317h-7.365
			c0.062,2.264,0.226,4.391,0.493,6.379c1.26-1.447,2.397-3.218,3.409-5.314l2.131,1.065c-1.483,2.975-3.076,5.239-4.781,6.792
			c0.524,1.065,1.01,1.847,1.458,2.344s0.792,0.746,1.032,0.746c0.621,0,1.176-1.403,1.665-4.208L58.984,65.131z M58.038,51.334
			l-1.971,1.465c-0.977-1.456-2.149-2.774-3.516-3.956l1.878-1.571C55.823,48.497,57.026,49.851,58.038,51.334z"/>
		<path fill="#007AA4" d="M86.728,49.31h-7.578v2.104h6.459v6.539H64.087v-6.539h6.326V49.31h-7.498v-2.158h23.813V49.31z
			 M86.754,62.601h-6.299c-0.71,1.137-1.603,2.242-2.677,3.316c2.353,0.595,5.163,1.487,8.43,2.677l-1.039,2.078
			c-2.424-0.968-5.602-2.016-9.535-3.143c-2.593,1.66-6.521,2.672-11.787,3.037l-0.799-2.264c3.897-0.089,7.009-0.608,9.336-1.558
			c-1.998-0.488-3.809-0.879-5.434-1.172c0.853-0.852,1.683-1.842,2.491-2.97h-6.499v-2.104h7.964
			c0.524-0.799,0.963-1.536,1.318-2.211l2.371,0.546c-0.16,0.338-0.488,0.893-0.985,1.665h5.434c0.328-0.56,0.563-1.025,0.706-1.398
			l2.37,0.413c-0.106,0.285-0.262,0.613-0.466,0.986h5.101V62.601z M70.413,55.915v-2.49h-3.982v2.49H70.413z M77.591,62.601h-5.367
			c-0.364,0.515-0.794,1.088-1.292,1.718c1.296,0.222,2.65,0.51,4.062,0.865C75.864,64.536,76.73,63.675,77.591,62.601z
			 M76.806,51.414V49.31h-4.009v2.104H76.806z M76.806,55.915v-2.49h-4.009v2.49H76.806z M83.211,55.915v-2.49h-4.062v2.49H83.211z"
			/>
		<path fill="#007AA4" d="M46.305,94.657h-4.248v4.768h-2.238v-4.768h-4.701v-2.158h4.701v-2.184h-4.128v-2.118h2.104
			c-0.222-1.189-0.528-2.357-0.919-3.502h-1.691v-2.224h4.581v-1.998h-3.849v-2.158h3.849v-2.61h2.291v2.61h3.596v2.158h-3.596
			v1.998h4.142v2.224h-1.252c-0.222,0.87-0.577,2.038-1.065,3.502h1.878v2.118h-3.702v2.184h4.248V94.657z M42.629,84.695h-3.356
			c0.249,0.932,0.501,2.1,0.759,3.502h1.505C41.981,87.052,42.345,85.885,42.629,84.695z M59.157,97.573l-1.505,1.904
			c-1.607-1.19-2.77-2.188-3.489-2.997c-0.87,1.172-1.807,2.184-2.81,3.037l-1.478-1.838c1.234-0.977,2.202-1.976,2.903-2.997
			c-1.35-2.104-2.251-4.768-2.704-7.991h-0.679v12.705h-2.357V76.052h10.828c0,1.385-0.049,2.652-0.146,3.802
			s-0.267,1.875-0.506,2.177s-0.504,0.566-0.792,0.792c-0.289,0.227-1.085,0.339-2.391,0.339c-0.4,0-0.831-0.013-1.292-0.04
			l-0.786-2.158c0.47,0.018,1.363,0.027,2.677,0.027c0.195,0,0.364-0.096,0.506-0.287s0.235-0.97,0.28-2.337h-6.02v6.113h8.51
			c-0.338,4.013-1.141,7.325-2.411,9.935C56.436,95.518,57.656,96.57,59.157,97.573z M55.361,86.692h-3.023
			c0.337,2.273,0.91,4.128,1.718,5.567C54.642,90.813,55.077,88.957,55.361,86.692z"/>
		<path fill="#007AA4" d="M85.116,99.478h-2.557v-1.412H71.345v1.385h-2.477v-8.91c-1.811,0.684-3.347,1.181-4.608,1.491
			l-1.452-2.197c4.155-1.119,7.653-2.401,10.494-3.849c-0.977-1.252-2.237-2.553-3.782-3.902c-1.412,0.888-2.832,1.705-4.262,2.451
			l-1.691-1.851c4.146-1.962,7.529-4.391,10.148-7.285l2.597,0.706c-0.347,0.417-0.804,0.91-1.372,1.478h9.656v2.344
			c-2.726,3.48-6.095,6.246-10.108,8.297h10.627V99.478z M82.559,95.669v-5.074H71.345v5.074H82.559z M81.24,79.927h-8.803
			c-0.32,0.284-0.613,0.519-0.879,0.706c1.536,1.385,2.854,2.761,3.956,4.128C77.733,83.394,79.642,81.783,81.24,79.927z"/>
	</g>
	<g>
		<g>
			<path fill="none" stroke="#FFE565" stroke-width="0.8523" stroke-miterlimit="10" d="M111.16,72.163
				c0,0.427-0.005,0.854-0.016,1.279"/>
			<path fill="none" stroke="#FFE565" stroke-width="0.8523" stroke-miterlimit="10" stroke-dasharray="2.5641,2.5641" d="
				M111.018,76.003c-1.963,26.461-24.055,47.319-51.018,47.319c-28.254,0-51.16-22.905-51.16-51.16
				c0-27.396,21.533-49.761,48.596-51.097"/>
			<path fill="none" stroke="#FFE565" stroke-width="0.8523" stroke-miterlimit="10" d="M58.721,21.019
				c0.425-0.01,0.852-0.016,1.279-0.016"/>
		</g>
	</g>
</g>
</svg>
