<?xml version="1.0" encoding="utf-8"?>
<!-- Generator: Adobe Illustrator 16.0.0, SVG Export Plug-In . SVG Version: 6.00 Build 0)  -->
<!DOCTYPE svg PUBLIC "-//W3C//DTD SVG 1.1//EN" "http://www.w3.org/Graphics/SVG/1.1/DTD/svg11.dtd">
<svg version="1.1" id="圖層_1" xmlns="http://www.w3.org/2000/svg" xmlns:xlink="http://www.w3.org/1999/xlink" x="0px" y="0px"
	 width="249px" height="106px" viewBox="0 0 249 106" enable-background="new 0 0 249 106" xml:space="preserve">
<path fill="#C4BB5C" d="M249,80c0,14.359-11.641,26-26,26H26C11.641,106,0,94.359,0,80V26C0,11.641,11.641,0,26,0h197
	c14.359,0,26,11.641,26,26V80z"/>
<g>
	<path fill="#FFFFFF" d="M176.871,49.492c0-9.165,7.457-16.62,16.621-16.62c9.165,0,16.622,7.456,16.622,16.62
		c0,0.164-0.003,0.327-0.009,0.489c-0.056,1.97,1.497,3.614,3.469,3.671c1.956,0.062,3.615-1.496,3.672-3.469
		c0.006-0.23,0.009-0.46,0.009-0.692c0-13.102-10.659-23.763-23.763-23.763s-23.763,10.661-23.763,23.763
		c0,6.664,2.825,13.065,7.751,17.559c0.686,0.626,1.547,0.934,2.407,0.934c0.968,0,1.934-0.392,2.638-1.164
		c1.33-1.458,1.227-3.716-0.229-5.045C178.849,58.632,176.871,54.154,176.871,49.492z"/>
	<path fill="#FFFFFF" d="M222.24,67.934l-0.01-0.021c-0.187-0.467-0.411-0.906-0.652-1.332l-2.119-6.155
		c-0.701-1.95-2.851-2.965-4.802-2.264c-1.063,0.381-1.834,1.198-2.213,2.174c-0.789-1.893-2.952-2.807-4.858-2.041
		c-0.938,0.376-1.637,1.092-2.021,1.946c-0.973-1.416-2.823-2.025-4.485-1.359c-0.896,0.36-1.566,1.032-1.961,1.836L194.096,48.2
		c-0.771-1.924-2.957-2.859-4.882-2.085c-1.925,0.771-2.858,2.957-2.086,4.882l6.265,15.613l-1.942-1.278
		c-1.864-1.226-4.37-0.711-5.596,1.153c-1.227,1.864-0.711,4.37,1.151,5.598l10.893,10.216c0.207,0.215,0.428,0.416,0.65,0.611
		l0.173,0.162c0.003,0.002,0.009,0.004,0.012,0.007c3.078,2.579,7.438,3.426,11.426,1.827l5.826-2.339
		C221.753,80.253,224.554,73.702,222.24,67.934z"/>
</g>
<g>
	<path fill="#FFFFFF" d="M60.227,65.113c-0.393,1.915-0.911,3.398-1.554,4.448c-0.644,1.051-1.471,1.576-2.482,1.576
		c-1.689,0-3.369-1.507-5.038-4.521c-1.689,1.257-3.55,2.386-5.583,3.388l-1.502-2.239c2.328-1.09,4.365-2.293,6.113-3.608
		c-0.491-1.896-0.83-4.954-1.017-9.177h-6.304v4.168c1.502-0.304,3.171-0.727,5.008-1.267l0.059,2.622
		c-1.817,0.53-3.506,0.953-5.067,1.267v6.688c0,0.766-0.157,1.336-0.472,1.709c-0.314,0.373-0.712,0.616-1.193,0.729
		c-0.481,0.113-1.346,0.17-2.592,0.17c-0.933,0-1.847-0.024-2.74-0.073l-0.943-2.858c1.355,0.06,2.465,0.089,3.329,0.089
		c0.923,0,1.463-0.042,1.62-0.125c0.157-0.084,0.236-0.263,0.236-0.538v-5.214c-2.161,0.412-4.139,0.712-5.937,0.898l-0.486-2.505
		c1.944-0.216,4.085-0.56,6.422-1.03v-4.729h-6.334v-2.563h6.334v-3.417c-1.355,0.206-3.064,0.398-5.126,0.575l-1.208-2.504
		c5.097-0.304,9.354-1.095,12.771-2.372l1.532,2.225c-1.905,0.677-3.644,1.178-5.214,1.502v3.992h6.275
		c-0.04-1.218-0.059-3.781-0.059-7.689h2.681c-0.029,2.612-0.029,5.175,0,7.689h8.234v2.563h-8.146
		c0.069,2.504,0.25,4.855,0.545,7.056c1.394-1.601,2.651-3.56,3.771-5.877l2.357,1.178c-1.64,3.29-3.403,5.794-5.288,7.513
		c0.58,1.178,1.117,2.042,1.613,2.592c0.496,0.551,0.876,0.825,1.142,0.825c0.688,0,1.301-1.552,1.841-4.654L60.227,65.113z
		 M59.182,49.854l-2.18,1.62c-1.081-1.61-2.376-3.069-3.889-4.375l2.077-1.738C56.731,46.716,58.062,48.213,59.182,49.854z"/>
	<path fill="#FFFFFF" d="M90.159,47.614h-8.381v2.328h7.144v7.232H65.118v-7.232h6.997v-2.328h-8.292v-2.386h26.337V47.614z
		 M90.188,62.314h-6.967c-0.786,1.258-1.772,2.48-2.96,3.668c2.602,0.658,5.71,1.646,9.324,2.961l-1.149,2.298
		c-2.681-1.07-6.196-2.229-10.546-3.477c-2.868,1.836-7.213,2.956-13.036,3.358l-0.884-2.504c4.311-0.098,7.753-0.673,10.326-1.724
		c-2.209-0.54-4.213-0.972-6.01-1.296c0.943-0.942,1.861-2.037,2.754-3.285h-7.188v-2.327h8.809
		c0.579-0.884,1.065-1.698,1.458-2.445l2.622,0.604c-0.177,0.373-0.541,0.986-1.09,1.841h6.01c0.363-0.618,0.624-1.134,0.781-1.547
		l2.622,0.457c-0.118,0.314-0.29,0.678-0.516,1.09h5.642V62.314z M72.114,54.921v-2.755H67.71v2.755H72.114z M80.054,62.314h-5.936
		c-0.403,0.57-0.879,1.203-1.429,1.9c1.434,0.246,2.931,0.565,4.493,0.958C78.144,64.456,79.101,63.503,80.054,62.314z
		 M79.185,49.942v-2.328h-4.434v2.328H79.185z M79.185,54.921v-2.755h-4.434v2.755H79.185z M86.27,54.921v-2.755h-4.493v2.755H86.27
		z"/>
	<path fill="#FFFFFF" d="M106.538,65.718h-4.699v5.273h-2.475v-5.273h-5.199v-2.387h5.199v-2.416h-4.566v-2.342h2.327
		c-0.246-1.315-0.584-2.607-1.016-3.874h-1.871V52.24h5.067V50.03h-4.257v-2.386h4.257v-2.887h2.533v2.887h3.977v2.386h-3.977v2.209
		h4.581v2.459h-1.384c-0.246,0.963-0.639,2.254-1.179,3.874h2.077v2.342h-4.095v2.416h4.699V65.718z M102.473,54.699h-3.712
		c0.274,1.031,0.555,2.323,0.839,3.874h1.665C101.755,57.307,102.158,56.016,102.473,54.699z M120.752,68.943l-1.665,2.106
		c-1.778-1.316-3.064-2.421-3.859-3.314c-0.962,1.296-1.999,2.416-3.108,3.358l-1.635-2.032c1.365-1.08,2.436-2.186,3.211-3.314
		c-1.493-2.327-2.49-5.273-2.99-8.838h-0.751v14.052h-2.607V45.14h11.975c0,1.532-0.054,2.934-0.162,4.206
		c-0.108,1.272-0.295,2.075-0.56,2.408c-0.265,0.334-0.557,0.626-0.876,0.876s-1.2,0.375-2.644,0.375
		c-0.442,0-0.918-0.015-1.429-0.044l-0.869-2.386c0.521,0.02,1.507,0.029,2.961,0.029c0.216,0,0.402-0.105,0.56-0.316
		c0.157-0.211,0.26-1.073,0.31-2.585h-6.658v6.761h9.413c-0.374,4.438-1.262,8.102-2.666,10.988
		C117.742,66.67,119.093,67.834,120.752,68.943z M116.554,56.909h-3.344c0.373,2.514,1.006,4.566,1.9,6.157
		C115.759,61.466,116.24,59.413,116.554,56.909z"/>
	<path fill="#FFFFFF" d="M148.709,71.05h-2.828v-1.562h-12.402v1.532h-2.738v-9.854c-2.004,0.756-3.703,1.306-5.098,1.649
		l-1.605-2.431c4.596-1.237,8.465-2.655,11.607-4.257c-1.08-1.384-2.475-2.823-4.184-4.315c-1.561,0.982-3.133,1.885-4.713,2.71
		l-1.871-2.047c4.586-2.17,8.326-4.855,11.225-8.057l2.871,0.781c-0.383,0.462-0.889,1.007-1.516,1.635h10.678v2.592
		c-3.014,3.85-6.74,6.909-11.18,9.176h11.754V71.05z M145.881,66.837v-5.612h-12.402v5.612H145.881z M144.424,49.426h-9.736
		c-0.354,0.314-0.678,0.574-0.973,0.781c1.699,1.532,3.156,3.054,4.375,4.566C140.545,53.261,142.656,51.479,144.424,49.426z"/>
</g>
<g>
</g>
<g>
</g>
<g>
</g>
<g>
</g>
<g>
</g>
<g>
</g>
<g>
</g>
<g>
</g>
<g>
</g>
<g>
</g>
<g>
</g>
<g>
</g>
<g>
</g>
<g>
</g>
<g>
</g>
</svg>
