<?xml version="1.0" encoding="utf-8"?>
<!-- Generator: Adobe Illustrator 26.5.0, SVG Export Plug-In . SVG Version: 6.00 Build 0)  -->
<svg version="1.1" id="圖層_1" xmlns="http://www.w3.org/2000/svg" xmlns:xlink="http://www.w3.org/1999/xlink" x="0px" y="0px"
	 viewBox="0 0 258 67" style="enable-background:new 0 0 258 67;" xml:space="preserve">
<style type="text/css">
	.st0{fill:#E50012;}
	.st1{fill:#FFFFFF;}
	.st2{fill:#40210F;}
</style>
<g>
	<g>
		<rect x="128.04" y="0.55" class="st0" width="129.73" height="65.91"/>
		<g>
			<path class="st1" d="M142.16,41.28c-1.65,0-2.68-0.11-3.07-0.33c-0.55-0.35-0.83-1.11-0.83-2.28V6.82c0-0.28,0.08-0.47,0.24-0.57
				c0.16-0.09,0.37-0.08,0.65,0.04l8.83,2.96h0.06h4.12l2.95-2.39c0.28-0.22,0.54-0.33,0.82-0.33c0.27,0,0.64,0.11,1.12,0.33
				l6.01,2.86c1.84,0.89,1.83,1.68-0.06,2.37c-0.63,0.26-0.92,0.73-0.88,1.43v25.18c-0.04,0.48-0.26,0.82-0.65,1.05
				c-0.55,0.41-1.84,0.64-3.88,0.67c-2.47,0.09-3.95-0.02-4.42-0.34c-0.43-0.28-0.65-0.76-0.65-1.42v-0.48h-4.77v0.48
				c0,1.05-0.24,1.71-0.71,2c-0.2,0.1-0.43,0.19-0.71,0.29l3,1.24c0.78,0.38,1.31,0.68,1.6,0.91c0.27,0.22,0.35,0.53,0.23,0.9
				c-0.16,0.41-0.65,0.57-1.47,0.47c-0.78-0.09-1.35,0.05-1.71,0.43c-2.87,2.57-6.5,4.93-10.89,7.05c-0.4,0.16-0.67,0.17-0.83,0.06
				c-0.11-0.17-0.03-0.36,0.24-0.57C138.63,49.24,140.52,45.85,142.16,41.28z M147.76,18.01h4.77v-7.42h-4.77V18.01z M147.76,26.96
				h4.77v-7.62h-4.77V26.96z M147.76,36.86h4.77v-8.57h-4.77V36.86z M152.41,40.8c2.2,0.29,4.3,0.88,6.3,1.76
				c1.96,0.96,3.26,1.97,3.89,3.05c0.55,0.86,0.74,1.81,0.59,2.86c-0.2,1.04-0.67,1.86-1.41,2.42c-1.02,0.7-2.08,1.05-3.18,1.05
				c-1.26-0.03-2.25-0.43-3.01-1.18c-0.74-0.83-1.11-1.95-1.11-3.39c-0.27-2.63-1.14-4.63-2.59-5.99c-0.13-0.16-0.16-0.31-0.13-0.43
				C151.84,40.82,152.06,40.78,152.41,40.8z M175.44,18.58h-11.42c-0.55,0-0.83-0.23-0.83-0.71c0.04-0.41,0.31-0.62,0.83-0.62h13.37
				V6.92c-0.04-0.17,0.02-0.31,0.18-0.43c0.12-0.13,0.32-0.2,0.59-0.2l7.77,0.57c1.77,0.1,2.68,0.48,2.71,1.15
				c0.03,0.63-0.25,1.04-0.89,1.23c-0.63,0.19-0.92,0.49-0.88,0.9v7.09h0.18c0.82-1.15,1.66-2.26,2.53-3.33
				c0.12-0.19,0.29-0.29,0.53-0.29c0.19,0,0.37,0.1,0.53,0.29c0.47,0.66,0.94,1.26,1.42,1.75c1.02,1.47,1.51,2.35,1.47,2.68
				c-0.04,0.15-0.11,0.23-0.24,0.23h-3.41h-0.17h-2.83v27.46c-0.08,2.23-0.61,3.69-1.6,4.38c-1.64,1.33-4.3,1.81-7.95,1.43
				c-0.83-0.13-1.22-0.52-1.18-1.19c-0.04-1.88-0.32-3.25-0.83-4.14c-0.63-0.95-1.84-1.64-3.65-2.05c-0.59-0.12-0.87-0.3-0.83-0.52
				c0.08-0.22,0.36-0.31,0.83-0.29c3.18,0.14,4.97,0.08,5.36-0.13c0.2-0.17,0.31-0.45,0.35-0.87v-9.42
				c-3.68,3.74-8.65,6.68-14.9,8.8c-0.63,0.28-1,0.33-1.12,0.14c-0.08-0.16,0.08-0.43,0.47-0.81
				C168.79,35.26,173.33,27.65,175.44,18.58z"/>
			<path class="st1" d="M212.6,17.05h-0.36H194.7c-0.52,0-0.77-0.23-0.77-0.71c0-0.41,0.25-0.62,0.77-0.62h13.01
				c2.39-2.66,3.72-3.99,4-3.99s0.59,0.11,0.94,0.34c4,2.66,6,4.11,6,4.33c0,0.25-0.07,0.45-0.23,0.58
				c-0.11,0.06-0.19,0.09-0.24,0.09H212.6z M203.47,47.9v2c-0.04,0.99-0.26,1.59-0.65,1.81c-0.47,0.29-1.73,0.48-3.78,0.57
				c-1.89,0.06-3.06-0.04-3.53-0.33c-0.47-0.28-0.7-0.97-0.7-2.04V32.62c0-0.26,0.08-0.43,0.23-0.52c0.11-0.06,0.31-0.06,0.59,0.04
				l7.83,2.62h0.06h2.88l3.24-2.9c0.19-0.19,0.35-0.29,0.47-0.29c0.15,0,0.35,0.06,0.59,0.19l5.42,2.95
				c1.38,0.73,1.29,1.49-0.24,2.28c-0.48,0.28-0.71,0.72-0.71,1.28v11.23c0,0.54-0.24,0.92-0.72,1.15c-0.5,0.25-2.42,0.47-5.77,0.66
				c-0.74,0-1.25-0.16-1.53-0.48c-0.28-0.28-0.42-0.57-0.42-0.86V47.9H203.47z M210.24,23.34h-0.36h-14.02
				c-0.5,0-0.77-0.25-0.77-0.72c0-0.41,0.26-0.62,0.77-0.62h9.49c2.4-2.67,3.73-4,4-4c0.27,0,0.59,0.11,0.95,0.34
				c4,2.66,6.01,4.1,6.01,4.33c0,0.25-0.08,0.45-0.24,0.57c-0.12,0.07-0.21,0.1-0.24,0.1H210.24z M210.01,10.78h-0.35h-13.55
				c-0.51,0-0.77-0.24-0.77-0.72c0-0.41,0.26-0.62,0.77-0.62h9.42c2.25-2.41,3.44-3.61,3.6-3.61c0.23,0,0.52,0.09,0.88,0.28
				c3.73,2.54,5.6,3.88,5.6,4c0,0.25-0.06,0.45-0.18,0.57c-0.11,0.07-0.19,0.1-0.23,0.1H210.01z M221.5,25.86
				c0.07-2.25,0.11-4.63,0.11-7.14v-4.99c0-0.35,0.09-0.59,0.25-0.72c0.15-0.15,3.25-0.04,9.3,0.33c1.73,0.09,2.59,0.4,2.59,0.91
				c0,0.5-0.43,0.9-1.29,1.19c-0.75,0.25-1.12,0.68-1.12,1.28v1.43c0,1.78-0.05,3.58-0.18,5.43c1.14-0.38,2.3-0.73,3.48-1.04
				c-0.03-3.46-0.03-7.38,0-11.75h-15.72c-0.5,0-0.77-0.24-0.77-0.72c0-0.41,0.27-0.62,0.77-0.62h15.25l3.01-2.9
				c0.31-0.35,0.64-0.52,1.01-0.52c0.27,0.03,0.59,0.15,0.94,0.38L245,9.73c1.96,1.05,2,2.06,0.11,3.04
				c-0.62,0.32-0.94,0.74-0.94,1.25c-0.07,12.09,0.49,20.37,1.71,24.84c0.2,0.86,0.41,1.29,0.66,1.29c0.23-0.03,0.48-0.3,0.76-0.82
				c1.1-2.15,1.85-3.58,2.24-4.27c0.12-0.22,0.32-0.32,0.59-0.29c0.2,0.07,0.28,0.24,0.24,0.52c-0.28,1.56-0.55,3.44-0.83,5.67
				c-0.16,1.3,0,2.63,0.47,4c0.66,1.68,0.87,3.01,0.59,3.99c-0.28,1.11-0.88,1.93-1.83,2.43c-0.9,0.47-1.9,0.71-3,0.71
				c-1.54,0-2.85-0.49-3.95-1.47c-1.69-1.5-2.89-3.15-3.59-4.95c-2.16-3.95-3.36-11.14-3.6-21.61c-1.25,0.94-2.47,1.9-3.65,2.85
				c-0.59,5.21-1.32,9.14-2.18,11.8c-2.59,6.86-6.88,11.33-12.89,13.43c-0.56,0.28-0.91,0.32-1.06,0.1
				c-0.16-0.23-0.1-0.45,0.18-0.67c2.87-3.17,4.83-9,5.89-17.46c-0.54,0.19-0.94,0.66-1.18,1.43c-0.23,0.69-0.49,1.16-0.76,1.38
				c-0.28,0.19-0.56,0.24-0.83,0.14c-0.59-0.19-1.53-2.67-2.82-7.43h-5.07h-0.36h-13.78c-0.51,0-0.77-0.23-0.77-0.71
				c0-0.41,0.26-0.62,0.77-0.62h9.25c2.4-2.66,3.73-4,4-4c0.2,0,1.96,1.09,5.3,3.28c-0.03-0.13-0.06-0.2-0.06-0.23
				c-0.16-0.48,0.08-0.73,0.71-0.77C217.08,26.48,219.15,26.24,221.5,25.86z M203.47,46.57h3.3V36.1h-3.3V46.57z"/>
		</g>
		<g>
			<path class="st1" d="M137.81,59.85l1.5-4.17h0.62l1.56,4.17l1.52-4.09h1.23l-2.35,5.64h-0.9l-1.48-3.8l-1.41,3.8h-0.91l-2.2-5.64
				h1.23L137.81,59.85z"/>
			<path class="st1" d="M147.88,56.55v1.44h2.34v0.8h-2.34v1.72h2.41v0.79h-3.58v-5.53h3.58v0.79H147.88z"/>
			<path class="st1" d="M154.59,60.05l-0.61,1.24h-1.25l2.69-5.68h1.05l2.62,5.68h-1.26l-0.57-1.24H154.59z M155.88,56.97l-1,2.34
				h2.07L155.88,56.97z"/>
			<path class="st1" d="M162.8,60.5h2.1v0.79h-3.26v-5.53h1.17V60.5z"/>
			<path class="st1" d="M169.55,61.29h-1.07v-4.74h-1.54v-0.79h4.15v0.79h-1.54V61.29z"/>
			<path class="st1" d="M177.73,58.01v-2.25h1.16v5.53h-1.16v-2.55h-2.86v2.55h-1.18v-5.53h1.18v2.25H177.73z"/>
			<path class="st1" d="M193.14,57.56l-1.73,3.81h-0.29l-1.63-3.82l-0.78,3.75h-1.17l1.16-5.68h0.87l1.8,3.8l1.72-3.8h0.88
				l1.03,5.68h-1.17L193.14,57.56z"/>
			<path class="st1" d="M198.99,60.05l-0.61,1.24h-1.26l2.7-5.68h1.05l2.63,5.68h-1.26l-0.58-1.24H198.99z M200.27,56.97l-1,2.34
				h2.07L200.27,56.97z"/>
			<path class="st1" d="M212.15,58.35v0.14c0,0.88-0.28,1.59-0.84,2.14c-0.56,0.54-1.33,0.82-2.31,0.82c-0.95,0-1.75-0.28-2.36-0.84
				c-0.63-0.57-0.94-1.25-0.94-2.06c0-0.83,0.32-1.54,0.95-2.1c0.63-0.55,1.44-0.83,2.43-0.83c1.28,0,2.19,0.44,2.74,1.33
				l-1.05,0.44c-0.35-0.64-0.93-0.95-1.72-0.95c-0.62,0-1.13,0.21-1.54,0.63c-0.41,0.43-0.6,0.93-0.6,1.5c0,0.58,0.2,1.07,0.6,1.47
				c0.39,0.41,0.91,0.61,1.54,0.61c0.54,0,0.96-0.15,1.28-0.46c0.32-0.3,0.48-0.67,0.48-1.09h-1.66v-0.74H212.15z"/>
			<path class="st1" d="M216.21,60.05l-0.62,1.24h-1.25l2.69-5.68h1.05l2.62,5.68h-1.26l-0.58-1.24H216.21z M217.51,56.97
				l-1.01,2.34h2.06L217.51,56.97z"/>
			<path class="st1" d="M227.83,60.5v0.79h-4.93l3.15-4.74h-2.77v-0.79h4.63l-3.16,4.74H227.83z"/>
			<path class="st1" d="M231.91,61.29h-1.17v-5.53h1.17V61.29z"/>
			<path class="st1" d="M235.09,55.61h0.89l3.91,4.17l0.02-4.02h1.16v5.64h-0.88l-3.93-4.15l-0.01,4.05h-1.17V55.61z"/>
			<path class="st1" d="M245.34,56.55v1.44h2.32v0.8h-2.32v1.72h2.41v0.79h-3.58v-5.53h3.58v0.79H245.34z"/>
		</g>
	</g>
	<g>
		<path class="st2" d="M19.56,27.59v1.06h-8.61v5.35h7.28v1.06h-7.28v6.13h9.57v1.15H0.24v-1.15h9.48v-6.13H2.71v-1.06h7.01v-5.35
			H1.11v-1.06H19.56z M12.19,26.35l-0.97,0.97c-0.94-1.17-2.09-2.29-3.44-3.41l0.97-0.81C9.9,24.04,11.04,25.12,12.19,26.35z"/>
		<path class="st2" d="M30,32.24v0.88h-3.08c0,1.08-0.02,2-0.07,2.79c0.92-0.18,1.8-0.38,2.61-0.61l0.09,0.81
			c-0.85,0.27-1.78,0.52-2.74,0.74c-0.07,0.92-0.16,1.64-0.27,2.18c-0.22,1.1-0.59,2.04-1.06,2.81c-0.49,0.81-1.15,1.5-1.91,2.07
			l-0.43-0.79c0.63-0.54,1.17-1.17,1.6-1.91c0.41-0.74,0.7-1.62,0.9-2.63c0.07-0.4,0.14-0.9,0.18-1.5
			c-0.85,0.18-1.75,0.36-2.67,0.52l-0.27-0.97c1.06-0.16,2.07-0.34,3.01-0.52c0.04-0.85,0.07-1.86,0.07-2.99h-3.08v-0.88H30z
			 M29.73,25.99v0.88h-6.76v-0.88H29.73z M25.87,31.18l-0.7,0.52c-0.43-1.28-0.99-2.52-1.66-3.69l0.7-0.52
			C24.86,28.62,25.42,29.83,25.87,31.18z M27.02,25.21l-0.7,0.54c-0.38-0.83-0.88-1.62-1.51-2.38l0.7-0.52
			C26.1,23.57,26.61,24.35,27.02,25.21z M29.04,27.77c-0.29,1.39-0.76,2.78-1.42,4.2l-0.78-0.45c0.61-1.39,1.05-2.74,1.33-4.02
			L29.04,27.77z M31.49,28.11v-5.01h0.88v5.01h2.99c0,5.66-0.09,9.53-0.22,11.57c-0.11,1.12-0.32,1.87-0.63,2.25
			c-0.29,0.38-0.67,0.58-1.17,0.58c-0.67,0-1.35-0.16-2.02-0.45l-0.18-0.97c0.76,0.31,1.48,0.45,2.2,0.45
			c0.31,0,0.54-0.16,0.67-0.49c0.14-0.32,0.25-0.99,0.29-1.98c0.11-1.84,0.18-5.21,0.18-10.09h-2.11c-0.07,4.16-0.49,7.32-1.26,9.5
			c-0.74,2.16-1.82,3.89-3.21,5.23l-0.54-0.7c1.3-1.3,2.29-2.99,2.97-5.06c0.7-2.07,1.08-5.08,1.17-8.99h-1.93v-0.88H31.49z
			 M42.81,25.99v0.88h-7.37v-0.88H42.81z M43.17,32.15v0.88H40v3.08h2.81v0.88H40v6.74h-1.06v-6.74h-3.08V36.1h3.08v-3.08h-3.17
			v-0.88H43.17z M38.77,31.45L37.8,31.7c-0.27-1.37-0.72-2.65-1.39-3.86l0.88-0.25C38,28.87,38.5,30.15,38.77,31.45z M40.43,25.21
			l-0.88,0.63c-0.45-0.9-1.08-1.75-1.84-2.56l0.81-0.52C39.28,23.5,39.91,24.31,40.43,25.21z M42.21,27.84
			c-0.29,1.35-0.74,2.7-1.33,4.04L40,31.45c0.56-1.35,0.97-2.65,1.23-3.86L42.21,27.84z"/>
		<path class="st2" d="M62.2,30.13v7.28h-6.49v2.02h9.84v0.88h-9.84v3.41h-0.97v-3.41h-9.66v-0.88h9.66v-2.02h-6.22v-7.28H62.2z
			 M54.04,24.06v4.58h-6.85v-4.58H54.04z M53.08,27.77v-2.81h-4.92v2.81H53.08z M54.74,33.21V31h-5.26v2.2H54.74z M54.74,36.53
			v-2.45h-5.26v2.45H54.74z M55.71,33.21h5.53V31h-5.53V33.21z M55.71,36.53h5.53v-2.45h-5.53V36.53z M63.44,24.06v4.58h-6.94v-4.58
			H63.44z M62.47,27.77v-2.81h-5.01v2.81H62.47z"/>
		<path class="st2" d="M73.97,23.45c-0.76,2.07-1.48,3.82-2.2,5.26v14.94h-1.06V30.67c-0.79,1.37-1.64,2.65-2.54,3.84l-0.79-0.61
			c1.19-1.6,2.22-3.26,3.12-4.99c1.04-1.98,1.82-3.93,2.41-5.82L73.97,23.45z M88.17,41.63v1.06H72.91v-1.06H88.17z M87.56,28.11
			v0.97H73.52v-0.97H87.56z M79.05,39.79l-1.06,0.43c-0.61-3.19-1.37-6.07-2.27-8.61l0.79-0.52C77.5,33.75,78.35,36.64,79.05,39.79z
			 M81.95,26.96l-0.97,0.72c-0.65-1.35-1.53-2.65-2.63-3.86l0.88-0.63C80.3,24.33,81.2,25.59,81.95,26.96z M85.29,31.27
			c-0.52,2.92-1.35,5.86-2.47,8.85l-0.97-0.52c1.1-3.03,1.89-5.93,2.38-8.7L85.29,31.27z"/>
		<path class="st2" d="M91.83,43.72h-1.64l18.63-20.69h1.6L91.83,43.72z"/>
	</g>
</g>
</svg>
