<?xml version="1.0" encoding="utf-8"?>
<!-- Generator: Adobe Illustrator 16.0.0, SVG Export Plug-In . SVG Version: 6.00 Build 0)  -->
<!DOCTYPE svg PUBLIC "-//W3C//DTD SVG 1.1//EN" "http://www.w3.org/Graphics/SVG/1.1/DTD/svg11.dtd">
<svg version="1.1" id="分離模式" xmlns="http://www.w3.org/2000/svg" xmlns:xlink="http://www.w3.org/1999/xlink" x="0px"
	 y="0px" width="67px" height="74px" viewBox="0 0 67 74" enable-background="new 0 0 67 74" xml:space="preserve">
<g>
	<g>
		<g>
			<g>
				<linearGradient id="SVGID_1_" gradientUnits="userSpaceOnUse" x1="25.0273" y1="6.3276" x2="25.0273" y2="47.9245">
					<stop  offset="0" style="stop-color:#FFF100"/>
					<stop  offset="1" style="stop-color:#E60012"/>
				</linearGradient>
				<path fill="url(#SVGID_1_)" d="M33.547,47.81c1.086-1.576,2.175-10.523-2.171-15.512c-4.169-4.779-6.49-7.36-7.304-12.359
					c-0.685-4.189,0.422-10.541,2.834-13.816c-2.533,1.576-5.194,3.979-6.636,5.581c-2.624,2.909-8.068,13.259-1.914,20.44
					C23.623,38.283,30.791,40.566,33.547,47.81z"/>
				<linearGradient id="SVGID_2_" gradientUnits="userSpaceOnUse" x1="34.8223" y1="26.6455" x2="34.8223" y2="47.2146">
					<stop  offset="0" style="stop-color:#F08300"/>
					<stop  offset="1" style="stop-color:#970000"/>
				</linearGradient>
				<path fill="url(#SVGID_2_)" d="M33.547,47.81c1.963-1,8.1-11.971,3.602-21.54l-6.266,5.467c0.138,0.163,0.304,0.347,0.493,0.562
					C35.722,37.286,34.63,46.233,33.547,47.81z"/>
			</g>
			<linearGradient id="SVGID_3_" gradientUnits="userSpaceOnUse" x1="34.8857" y1="0.4985" x2="47.0659" y2="35.1507">
				<stop  offset="0" style="stop-color:#D9E369"/>
				<stop  offset="0.4594" style="stop-color:#009944"/>
				<stop  offset="1" style="stop-color:#171776"/>
			</linearGradient>
			<path fill="url(#SVGID_3_)" d="M33.456,0c-1.089,1.576-2.178,10.523,2.171,15.509c4.166,4.778,6.487,7.363,7.304,12.362
				c0.682,4.189-0.424,10.541-2.837,13.815c2.533-1.575,5.194-3.979,6.639-5.581c2.624-2.908,8.068-13.26,1.914-20.439
				C43.377,9.523,36.209,7.24,33.456,0z"/>
			
				<linearGradient id="SVGID_4_" gradientUnits="userSpaceOnUse" x1="-798.5923" y1="2483.4229" x2="-798.5923" y2="2503.9888" gradientTransform="matrix(-1 0 0 -1 -766.4141 2504.584)">
				<stop  offset="0" style="stop-color:#005293"/>
				<stop  offset="1" style="stop-color:#7ECEF4"/>
			</linearGradient>
			<path fill="url(#SVGID_4_)" d="M33.456,0c-1.966,1-8.103,11.97-3.602,21.537l6.263-5.467c-0.138-0.163-0.301-0.347-0.49-0.562
				C31.278,10.523,32.37,1.576,33.456,0z"/>
		</g>
	</g>
	<g>
		<g>
			<path fill="#250671" d="M2.304,65.114H0V53.597h2.304V65.114z M11.515,65.114H9.214v-4.606H4.301l-1.154-2.304h6.067v-4.607
				h2.301V65.114z"/>
			<path fill="#250671" d="M30.012,61.751c0,0.891-0.335,1.676-1.003,2.35c-0.667,0.676-1.455,1.014-2.36,1.014h-8.154V53.6h8.154
				c0.894,0,1.673,0.338,2.352,1.012c0.674,0.676,1.012,1.458,1.012,2.35V61.751z M27.708,61.68v-4.65
				c0-0.307-0.111-0.57-0.335-0.794S26.889,55.9,26.579,55.9h-5.781v6.91h5.781c0.31,0,0.57-0.114,0.794-0.347
				C27.597,62.232,27.708,61.975,27.708,61.68"/>
			<path fill="#250671" d="M45.879,56.216c-0.215-0.229-0.484-0.344-0.806-0.344h-5.781v9.214h-2.301V53.568h8.151
				c0.891,0,1.673,0.338,2.349,1.014c0.674,0.677,1.012,1.459,1.012,2.35v0.184c0,0.888-0.332,1.673-1,2.35
				c-0.667,0.676-1.455,1.014-2.36,1.014h-0.57l3.931,4.607h-2.779l-5.544-6.911h4.894c0.29,0,0.553-0.114,0.782-0.347
				c0.232-0.231,0.344-0.489,0.344-0.784C46.199,56.726,46.094,56.447,45.879,56.216"/>
			<path fill="#250671" d="M67,65.114h-8.154c-0.891,0-1.673-0.338-2.347-1.003c-0.679-0.667-1.017-1.452-1.017-2.36v-8.154H67V55.9
				h-9.214v5.779c0,0.309,0.114,0.575,0.338,0.796c0.221,0.227,0.484,0.335,0.794,0.335H67V65.114z M67,60.508h-7.217l-1.152-2.304
				H67V60.508z"/>
		</g>
		<g>
			<polygon fill-rule="evenodd" clip-rule="evenodd" fill="#250671" points="12.818,67.914 13.057,67.914 13.057,73.068 
				12.818,73.068 12.818,67.914 			"/>
			<polygon fill-rule="evenodd" clip-rule="evenodd" fill="#250671" points="33.381,67.914 33.619,67.914 33.619,73.068 
				33.381,73.068 33.381,67.914 			"/>
			<polygon fill-rule="evenodd" clip-rule="evenodd" fill="#250671" points="53.912,67.914 54.147,67.914 54.147,73.068 
				53.912,73.068 53.912,67.914 			"/>
			<g>
				<path fill="#250671" d="M1.221,69.971l-0.24,0.347c-0.201-0.184-0.514-0.369-0.935-0.562C0.043,69.753,0.04,69.75,0.037,69.75
					l0.241-0.31C0.705,69.618,1.021,69.793,1.221,69.971z M0.542,73.033l-0.39-0.229c0.298-0.57,0.562-1.181,0.799-1.828
					l0.338,0.227C1.049,71.87,0.8,72.483,0.542,73.033z M0.284,68.209l0.246-0.301c0.387,0.183,0.685,0.372,0.894,0.567
					c0.009,0.008,0.015,0.011,0.018,0.017L1.187,68.83c-0.181-0.191-0.464-0.387-0.84-0.587C0.321,68.229,0.301,68.218,0.284,68.209
					z M1.937,70.59h1.078c0,0.003,0,0.063-0.006,0.184c-0.049,1.114-0.115,1.784-0.201,2.014c-0.022,0.055-0.046,0.101-0.071,0.135
					c-0.089,0.098-0.212,0.154-0.367,0.169c-0.177,0.015-0.406,0.012-0.688-0.006c-0.014-0.146-0.054-0.275-0.123-0.381
					c0.184,0.018,0.398,0.025,0.642,0.025c0.092-0.003,0.158-0.022,0.192-0.06c0.098-0.109,0.166-0.674,0.212-1.693
					c0-0.003,0-0.006,0-0.012H1.886l-0.029,0.189l-0.369-0.037c0.095-0.533,0.163-1.109,0.206-1.733H2.61v-0.966H1.521v-0.381h1.476
					v1.899H2.61v-0.169H2.025C1.985,70.168,1.954,70.443,1.937,70.59z M5.326,72.962l-0.412,0.129
					c-0.012-0.16-0.04-0.353-0.077-0.567c-0.892,0.172-1.49,0.281-1.794,0.327l-0.106-0.425l0.31-0.043
					c0.229-1.177,0.407-2.532,0.533-4.06C3.791,68.157,3.802,68,3.813,67.851l0.438,0.065c-0.117,1.425-0.307,2.843-0.567,4.264
					c-0.012,0.052-0.02,0.101-0.028,0.146l1.108-0.169c-0.12-0.542-0.272-1.055-0.449-1.53l0.375-0.129
					c0.292,0.756,0.493,1.492,0.602,2.206C5.307,72.796,5.317,72.882,5.326,72.962z"/>
				<path fill="#250671" d="M2.101,73.134c-0.126,0-0.267-0.006-0.422-0.015c-0.017,0-0.028-0.014-0.031-0.031
					c-0.015-0.141-0.055-0.264-0.117-0.366c-0.009-0.012-0.009-0.026,0-0.038c0.009-0.011,0.02-0.02,0.034-0.014
					c0.181,0.017,0.396,0.025,0.636,0.025c0.081-0.003,0.138-0.02,0.167-0.049c0.06-0.071,0.146-0.415,0.2-1.647h-0.65L1.892,71.16
					c-0.003,0.02-0.018,0.034-0.038,0.028l-0.372-0.037c-0.009,0-0.018-0.006-0.022-0.015c-0.006-0.009-0.009-0.017-0.006-0.025
					c0.092-0.527,0.163-1.109,0.206-1.728c0.003-0.021,0.018-0.035,0.034-0.035h0.883v-0.896H1.521
					c-0.022,0-0.037-0.015-0.037-0.034v-0.381c0-0.021,0.015-0.034,0.037-0.034h1.476c0.021,0,0.037,0.014,0.037,0.034v1.899
					c0,0.017-0.017,0.034-0.037,0.034H2.61c-0.021,0-0.034-0.018-0.034-0.034v-0.135H2.058c-0.037,0.35-0.063,0.602-0.08,0.754
					h1.037c0.02,0,0.034,0.014,0.034,0.034c0,0.003,0,0.063-0.006,0.184c-0.031,0.733-0.071,1.271-0.12,1.621
					c0.003,0,0.006,0,0.009-0.003l0.283-0.04c0.227-1.16,0.404-2.519,0.53-4.031c0.011-0.163,0.022-0.323,0.034-0.473
					c0-0.009,0.006-0.02,0.012-0.025c0.008-0.006,0.02-0.009,0.028-0.006l0.438,0.068c0.017,0.003,0.031,0.018,0.031,0.037
					c-0.117,1.416-0.31,2.852-0.57,4.264c-0.008,0.034-0.014,0.068-0.02,0.098l1.022-0.155c-0.117-0.521-0.267-1.025-0.441-1.486
					c-0.003-0.009,0-0.021,0.003-0.029s0.009-0.014,0.021-0.02l0.375-0.129c0.018-0.003,0.037,0.006,0.043,0.022
					c0.292,0.754,0.496,1.496,0.604,2.212c0.018,0.095,0.026,0.181,0.034,0.261c0,0.015-0.008,0.031-0.025,0.037l-0.407,0.129
					c-0.014,0-0.022,0-0.031-0.006s-0.015-0.017-0.015-0.025c-0.014-0.149-0.04-0.324-0.074-0.53
					c-0.905,0.175-1.467,0.275-1.759,0.321c-0.018,0-0.034-0.012-0.04-0.026l-0.095-0.384c-0.025,0.146-0.049,0.255-0.074,0.324
					c-0.023,0.06-0.049,0.105-0.078,0.146c-0.094,0.104-0.223,0.164-0.39,0.181C2.292,73.134,2.2,73.134,2.101,73.134z
					 M1.714,73.051c0.264,0.018,0.481,0.02,0.653,0.006c0.146-0.015,0.261-0.069,0.341-0.158c0.022-0.028,0.046-0.074,0.065-0.126
					c0.086-0.223,0.152-0.896,0.201-1.999c0.002-0.069,0.005-0.121,0.005-0.149H1.937c-0.011,0-0.02-0.006-0.025-0.015
					c-0.009-0.006-0.012-0.017-0.009-0.025c0.018-0.146,0.049-0.421,0.089-0.819c0.003-0.018,0.018-0.031,0.034-0.031H2.61
					c0.018,0,0.034,0.014,0.034,0.034v0.135h0.318v-1.831H1.556v0.313H2.61c0.018,0,0.034,0.017,0.034,0.034v0.966
					c0,0.02-0.017,0.037-0.034,0.037H1.728c-0.046,0.596-0.111,1.154-0.2,1.664l0.301,0.032l0.022-0.158
					c0.003-0.017,0.018-0.028,0.035-0.028h0.719c0.021,0,0.034,0.015,0.034,0.034v0.012c-0.06,1.384-0.154,1.642-0.221,1.713
					c-0.043,0.049-0.111,0.072-0.218,0.075l0,0c-0.215,0-0.409-0.006-0.578-0.023C1.668,72.836,1.699,72.939,1.714,73.051z
					 M4.837,72.489c0.008,0,0.014,0,0.02,0.003c0.009,0.006,0.015,0.014,0.015,0.022c0.034,0.207,0.06,0.379,0.074,0.527
					l0.344-0.105c-0.009-0.069-0.02-0.146-0.031-0.229c-0.106-0.699-0.304-1.427-0.588-2.166l-0.312,0.108
					c0.175,0.468,0.323,0.975,0.44,1.502c0,0.008,0,0.017-0.005,0.025c-0.006,0.009-0.015,0.012-0.026,0.015L3.662,72.36
					c-0.012,0.003-0.023-0.003-0.029-0.009c-0.009-0.009-0.014-0.02-0.011-0.031c0.008-0.046,0.017-0.095,0.028-0.149
					c0.258-1.397,0.45-2.819,0.564-4.223l-0.37-0.058c-0.011,0.138-0.02,0.284-0.028,0.433c-0.129,1.53-0.31,2.896-0.536,4.065
					c-0.002,0.015-0.014,0.023-0.031,0.029l-0.27,0.037l0.089,0.354c0.301-0.045,0.88-0.151,1.763-0.32
					C4.834,72.489,4.834,72.489,4.837,72.489z M0.542,73.068c-0.006,0-0.012,0-0.018-0.003l-0.39-0.232
					c-0.017-0.009-0.02-0.028-0.012-0.046c0.293-0.564,0.562-1.178,0.797-1.822c0.003-0.012,0.012-0.02,0.022-0.022
					c0.009-0.003,0.021,0,0.029,0.005l0.338,0.224c0.012,0.009,0.02,0.026,0.012,0.04c-0.241,0.674-0.493,1.29-0.748,1.837
					c-0.003,0.009-0.012,0.018-0.021,0.021C0.548,73.068,0.545,73.068,0.542,73.068z M0.201,72.79l0.326,0.194
					c0.246-0.529,0.487-1.123,0.719-1.771l-0.277-0.183C0.739,71.652,0.481,72.246,0.201,72.79z M0.98,70.352
					c-0.009,0-0.018,0-0.023-0.009c-0.2-0.177-0.507-0.366-0.926-0.556c-0.002,0-0.002-0.003-0.005-0.006
					c-0.012,0-0.018-0.008-0.023-0.017C-0.003,69.753,0,69.738,0.009,69.73l0.243-0.31c0.009-0.012,0.026-0.018,0.038-0.012
					c0.43,0.178,0.75,0.355,0.953,0.536c0.015,0.008,0.018,0.031,0.009,0.043l-0.243,0.353c-0.006,0.005-0.015,0.011-0.023,0.011
					C0.983,70.352,0.98,70.352,0.98,70.352z M0.089,69.738c0.39,0.178,0.685,0.355,0.886,0.527l0.2-0.289
					c-0.194-0.163-0.493-0.329-0.885-0.493L0.089,69.738z M0.034,69.784L0.034,69.784L0.034,69.784z M0.023,69.781L0.023,69.781
					L0.023,69.781z M1.187,68.865c-0.009,0-0.018-0.006-0.023-0.012c-0.18-0.189-0.461-0.384-0.833-0.579
					c-0.023-0.014-0.043-0.022-0.061-0.031c-0.009-0.006-0.018-0.015-0.021-0.025c-0.002-0.009,0-0.021,0.006-0.032l0.25-0.301
					c0.008-0.012,0.025-0.017,0.04-0.009c0.39,0.184,0.693,0.376,0.902,0.573l0.017,0.018c0.015,0.012,0.015,0.031,0.006,0.046
					l-0.255,0.338c-0.006,0.006-0.015,0.012-0.025,0.015C1.189,68.865,1.189,68.865,1.187,68.865z M0.338,68.2
					c0.009,0.003,0.018,0.009,0.026,0.015c0.358,0.188,0.633,0.378,0.819,0.562l0.212-0.281c-0.2-0.187-0.49-0.369-0.856-0.544
					L0.338,68.2z"/>
			</g>
			<g>
				<path fill="#250671" d="M21.869,69.12l0.378,0.129c-0.143,0.28-0.301,0.55-0.467,0.811v3.068h-0.398v-2.501
					c-0.215,0.275-0.403,0.498-0.569,0.67c-0.078-0.14-0.167-0.266-0.264-0.378c0.446-0.406,0.842-0.923,1.186-1.544
					C21.783,69.286,21.829,69.203,21.869,69.12z M21.764,67.879l0.381,0.149c-0.353,0.467-0.773,0.902-1.264,1.313
					c-0.022,0.017-0.043,0.034-0.061,0.048c-0.068-0.111-0.151-0.215-0.243-0.309c0.404-0.307,0.754-0.643,1.046-1.006
					C21.675,68.003,21.721,67.939,21.764,67.879z M22.331,73.039l-0.315-0.224c0.255-0.212,0.427-0.541,0.519-0.985
					c0.003-0.009,0.006-0.015,0.006-0.017l0.353,0.105C22.78,72.429,22.594,72.802,22.331,73.039z M25.86,70.913v0.35h-2.234
					c0.409,0.166,0.725,0.338,0.937,0.51l-0.229,0.287c-0.188-0.163-0.51-0.35-0.968-0.556l0.197-0.241h-1.338v-0.35H25.86z
					 M22.494,69.114h1.226c0.018-0.126,0.035-0.267,0.052-0.421h-1.532v-0.35h1.563c0.003-0.043,0.012-0.112,0.018-0.201
					c0.009-0.132,0.015-0.227,0.018-0.286l0.438,0.022l-0.055,0.465h1.613v0.35h-1.653c-0.009,0.063-0.021,0.154-0.034,0.274
					c-0.012,0.069-0.021,0.115-0.023,0.146h1.501v1.418h-3.131V69.114z M23.413,70.217V69.43h-0.581v0.787H23.413z M23.774,72.707
					h0.625c0.089,0,0.14-0.034,0.163-0.104c0.02-0.065,0.031-0.191,0.04-0.375c0.086,0.068,0.2,0.117,0.344,0.146
					c-0.025,0.341-0.101,0.55-0.221,0.624c-0.068,0.043-0.16,0.061-0.274,0.061h-0.726c-0.267,0-0.433-0.052-0.495-0.161
					c-0.043-0.074-0.061-0.186-0.061-0.332v-0.782h0.393v0.776c0,0.075,0.023,0.12,0.066,0.135
					C23.66,72.704,23.709,72.707,23.774,72.707z M24.333,70.217V69.43h-0.602v0.787H24.333z M24.646,69.43v0.787h0.613V69.43H24.646
					z M24.803,71.896l0.315-0.161c0.307,0.318,0.547,0.642,0.719,0.978c0.021,0.043,0.038,0.077,0.052,0.105l-0.338,0.181
					c-0.12-0.295-0.329-0.622-0.636-0.974C24.881,71.979,24.843,71.937,24.803,71.896z"/>
				<path fill="#250671" d="M21.78,73.162h-0.398c-0.02,0-0.034-0.014-0.034-0.034v-2.4c-0.191,0.24-0.36,0.438-0.51,0.593
					c-0.009,0.006-0.018,0.015-0.028,0.012c-0.012-0.003-0.021-0.009-0.026-0.018c-0.077-0.138-0.166-0.264-0.261-0.372
					c-0.011-0.015-0.011-0.035,0.003-0.049c0.441-0.404,0.837-0.92,1.178-1.536c0.052-0.092,0.095-0.175,0.135-0.252
					c0.009-0.018,0.025-0.022,0.043-0.018l0.375,0.129c0.012,0.003,0.018,0.012,0.023,0.021c0.003,0.009,0.003,0.018,0,0.028
					c-0.144,0.281-0.301,0.551-0.465,0.806v3.057C21.814,73.148,21.798,73.162,21.78,73.162z M21.417,73.094h0.329V70.06
					c0-0.006,0-0.015,0.003-0.021c0.16-0.243,0.31-0.501,0.447-0.771l-0.31-0.105c-0.037,0.071-0.077,0.146-0.12,0.229
					c-0.342,0.61-0.734,1.126-1.169,1.53c0.08,0.095,0.154,0.203,0.223,0.315c0.155-0.163,0.333-0.378,0.533-0.631
					c0.009-0.014,0.023-0.017,0.037-0.014c0.018,0.006,0.026,0.02,0.026,0.034V73.094z M24.451,73.097h-0.726
					c-0.28,0-0.455-0.061-0.524-0.181c-0.046-0.083-0.068-0.194-0.068-0.35v-0.782c0-0.02,0.018-0.034,0.037-0.034h0.393
					c0.021,0,0.034,0.015,0.034,0.034v0.776c0,0.086,0.032,0.101,0.043,0.104c0.023,0.006,0.072,0.009,0.135,0.009h0.625
					c0.095,0,0.117-0.046,0.132-0.078c0.017-0.063,0.028-0.186,0.037-0.366c0-0.015,0.009-0.025,0.02-0.031
					c0.012-0.003,0.026-0.003,0.038,0.006c0.08,0.063,0.191,0.111,0.326,0.137c0.018,0.006,0.028,0.021,0.028,0.037
					c-0.028,0.355-0.105,0.567-0.237,0.653C24.669,73.073,24.574,73.097,24.451,73.097z M23.204,71.818v0.748
					c0,0.141,0.018,0.243,0.055,0.315c0.058,0.098,0.215,0.144,0.467,0.144h0.726c0.108,0,0.194-0.018,0.255-0.055
					c0.105-0.069,0.175-0.258,0.2-0.567c-0.106-0.026-0.197-0.063-0.272-0.109c-0.008,0.152-0.02,0.258-0.037,0.321
					c-0.02,0.058-0.071,0.126-0.197,0.126h-0.625c-0.071,0-0.12-0.003-0.154-0.012c-0.063-0.022-0.092-0.077-0.092-0.169v-0.742
					H23.204z M22.331,73.073c-0.006,0-0.015,0-0.021-0.005l-0.315-0.227c-0.009-0.006-0.014-0.015-0.014-0.026
					c0-0.011,0.005-0.022,0.011-0.028c0.25-0.203,0.419-0.53,0.508-0.966c0-0.003,0-0.006,0-0.008c0-0.012,0.008-0.021,0.017-0.029
					c0.009-0.006,0.023-0.009,0.031-0.006l0.355,0.109c0.018,0.006,0.026,0.022,0.023,0.04c-0.112,0.516-0.307,0.896-0.573,1.138
					C22.348,73.07,22.339,73.073,22.331,73.073z M22.072,72.81l0.256,0.187c0.24-0.229,0.415-0.581,0.523-1.052l-0.289-0.088
					C22.474,72.28,22.311,72.601,22.072,72.81z M25.551,73.033c-0.003,0-0.006,0-0.009-0.003c-0.011,0-0.017-0.008-0.022-0.017
					c-0.117-0.292-0.33-0.616-0.631-0.963c-0.037-0.052-0.071-0.095-0.108-0.129c-0.009-0.009-0.012-0.021-0.012-0.028
					c0.003-0.012,0.009-0.023,0.021-0.026l0.314-0.163c0.015-0.009,0.029-0.006,0.041,0.006c0.309,0.32,0.553,0.653,0.725,0.988
					c0.02,0.04,0.037,0.074,0.052,0.104c0.008,0.017,0.003,0.04-0.015,0.049l-0.338,0.18C25.563,73.033,25.557,73.033,25.551,73.033
					z M24.86,71.907c0.028,0.029,0.055,0.063,0.083,0.098c0.292,0.338,0.502,0.656,0.625,0.945l0.274-0.146
					c-0.011-0.023-0.022-0.049-0.034-0.078c-0.169-0.317-0.401-0.642-0.696-0.951L24.86,71.907z M24.333,72.094
					c-0.009,0-0.017-0.003-0.025-0.009c-0.181-0.16-0.505-0.347-0.957-0.547c-0.009-0.006-0.018-0.015-0.021-0.026
					c-0.003-0.008,0-0.022,0.006-0.028l0.152-0.187h-1.267c-0.018,0-0.034-0.017-0.034-0.034v-0.35c0-0.02,0.017-0.034,0.034-0.034
					h3.639c0.021,0,0.037,0.015,0.037,0.034v0.35c0,0.018-0.017,0.034-0.037,0.034h-2.065c0.338,0.146,0.602,0.301,0.79,0.45
					c0.015,0.012,0.018,0.034,0.006,0.049l-0.231,0.286c-0.006,0.009-0.015,0.012-0.023,0.012H24.333z M23.419,71.492
					c0.419,0.189,0.723,0.364,0.908,0.519l0.187-0.232c-0.209-0.16-0.513-0.323-0.902-0.484c-0.009-0.002-0.015-0.008-0.018-0.017
					c-0.003,0.003-0.003,0.006-0.006,0.006L23.419,71.492z M22.259,71.229h1.304c0.012,0,0.023,0.006,0.031,0.018
					c0.006-0.012,0.018-0.018,0.032-0.018h2.2V70.95h-3.567V71.229z M25.625,70.566h-3.131c-0.021,0-0.037-0.017-0.037-0.034v-1.418
					c0-0.018,0.017-0.034,0.037-0.034h1.194c0.018-0.106,0.031-0.224,0.043-0.353h-1.492c-0.018,0-0.035-0.015-0.035-0.034v-0.347
					c0-0.023,0.018-0.038,0.035-0.038h1.532l0.015-0.169l0.017-0.286c0-0.018,0.015-0.031,0.038-0.034l0.436,0.025
					c0.011,0,0.02,0.003,0.025,0.012c0.006,0.006,0.009,0.015,0.009,0.025l-0.052,0.427h1.576c0.017,0,0.034,0.015,0.034,0.038
					v0.347c0,0.02-0.018,0.034-0.034,0.034h-1.622c-0.009,0.06-0.018,0.143-0.031,0.243c-0.009,0.046-0.012,0.083-0.018,0.109h1.461
					c0.021,0,0.035,0.017,0.035,0.034v1.418C25.66,70.55,25.646,70.566,25.625,70.566z M22.528,70.495h3.06v-1.347h-1.464
					c-0.012,0-0.02-0.006-0.025-0.012s-0.012-0.017-0.009-0.025c0.003-0.031,0.012-0.08,0.022-0.149
					c0.015-0.117,0.026-0.209,0.032-0.271c0.003-0.018,0.017-0.032,0.034-0.032H25.8v-0.277h-1.578
					c-0.012,0-0.023-0.006-0.026-0.015c-0.008-0.009-0.011-0.017-0.008-0.025l0.051-0.43l-0.369-0.021l-0.031,0.456
					c-0.003,0.02-0.015,0.034-0.035,0.034h-1.529v0.277h1.498c0.009,0,0.018,0.006,0.026,0.012c0.003,0.006,0.008,0.018,0.008,0.025
					c-0.017,0.161-0.034,0.299-0.051,0.425c-0.003,0.017-0.018,0.028-0.035,0.028h-1.191V70.495z M25.259,70.252h-0.613
					c-0.018,0-0.034-0.018-0.034-0.035V69.43c0-0.021,0.017-0.035,0.034-0.035h0.613c0.02,0,0.034,0.015,0.034,0.035v0.787
					C25.293,70.234,25.278,70.252,25.259,70.252z M24.683,70.183h0.542v-0.719h-0.542V70.183z M24.333,70.252h-0.602
					c-0.02,0-0.034-0.018-0.034-0.035V69.43c0-0.021,0.015-0.035,0.034-0.035h0.602c0.018,0,0.034,0.015,0.034,0.035v0.787
					C24.367,70.234,24.351,70.252,24.333,70.252z M23.766,70.183h0.533v-0.719h-0.533V70.183z M23.416,70.252h-0.584
					c-0.021,0-0.034-0.018-0.034-0.035V69.43c0-0.021,0.014-0.035,0.034-0.035h0.584c0.021,0,0.035,0.015,0.035,0.035v0.787
					C23.451,70.234,23.437,70.252,23.416,70.252z M22.866,70.183h0.513v-0.719h-0.513V70.183z M20.82,69.424c0,0-0.005,0-0.008,0
					c-0.009,0-0.018-0.006-0.023-0.015c-0.065-0.111-0.146-0.212-0.234-0.304c-0.009-0.006-0.015-0.018-0.012-0.025
					c0-0.012,0.006-0.021,0.014-0.026c0.401-0.307,0.751-0.642,1.04-1c0.052-0.071,0.098-0.138,0.138-0.197
					c0.006-0.012,0.026-0.018,0.04-0.012l0.384,0.152c0.009,0.006,0.018,0.014,0.021,0.022c0.003,0.012,0,0.023-0.006,0.031
					c-0.353,0.465-0.779,0.908-1.271,1.315l-0.061,0.052C20.835,69.424,20.826,69.424,20.82,69.424z M20.629,69.083
					c0.074,0.08,0.141,0.166,0.2,0.255l0.029-0.026c0.473-0.393,0.888-0.819,1.231-1.266l-0.315-0.127
					c-0.037,0.055-0.077,0.112-0.123,0.178C21.365,68.449,21.021,68.782,20.629,69.083z"/>
			</g>
			<g>
				<path fill="#250671" d="M42.787,68.39l0.35-0.135c0.381,0.51,0.633,0.937,0.751,1.277l-0.364,0.163
					c-0.025-0.068-0.077-0.183-0.151-0.344h-0.046l-0.003,0.006h-0.098l-0.006,0.006h-0.095l-0.006,0.006h-0.097l-0.009,0.006
					h-0.095l-0.009,0.006h-0.095l-0.005,0.006h-0.089l-0.009,0.005h-0.095l-0.006,0.006h-0.095L42.512,69.4h-0.077
					c-0.619,0.034-1.049,0.061-1.283,0.074l-0.04-0.403c0.163-0.009,0.313-0.015,0.438-0.018c0.2-0.369,0.375-0.773,0.529-1.203
					l0.433,0.101c-0.246,0.544-0.421,0.905-0.516,1.086l1.181-0.052C43.025,68.733,42.896,68.532,42.787,68.39z M43.495,69.885
					v2.733c0,0.191-0.049,0.318-0.146,0.378c-0.018,0.006-0.034,0.012-0.049,0.021c-0.138,0.049-0.393,0.074-0.771,0.074
					c-0.031-0.144-0.077-0.272-0.141-0.387c0.247,0.009,0.444,0.009,0.597,0c0.054-0.025,0.086-0.055,0.088-0.092v-0.682h-1.215
					v1.172h-0.397v-3.218H43.495z M43.073,70.246h-1.215v0.492h1.215V70.246z M41.858,71.606h1.215v-0.532h-1.215V71.606z
					 M45.71,70.357h-0.983c-0.317,0-0.519-0.06-0.602-0.181c-0.06-0.086-0.092-0.224-0.092-0.415v-1.899h0.424v0.96
					c0.57-0.189,1.015-0.37,1.333-0.539l0.286,0.31c-0.387,0.181-0.926,0.372-1.619,0.579v0.584c0,0.108,0.029,0.175,0.089,0.197
					c0.046,0.015,0.118,0.023,0.215,0.023h0.914c0.115,0,0.187-0.043,0.221-0.129c0.032-0.086,0.052-0.267,0.063-0.536
					c0.114,0.08,0.246,0.138,0.393,0.169c-0.029,0.404-0.106,0.659-0.229,0.766C46.03,70.32,45.896,70.357,45.71,70.357z
					 M44.775,72.679h0.945c0.121,0,0.201-0.046,0.238-0.138c0.037-0.098,0.063-0.304,0.077-0.619
					c0.12,0.083,0.249,0.135,0.384,0.163c-0.034,0.438-0.108,0.717-0.227,0.837c-0.091,0.092-0.237,0.135-0.438,0.135h-1.018
					c-0.318,0-0.524-0.061-0.613-0.181c-0.06-0.089-0.092-0.229-0.092-0.421v-1.935h0.424v0.911
					c0.622-0.203,1.089-0.406,1.398-0.607l0.281,0.327c-0.35,0.197-0.911,0.409-1.68,0.633v0.671c0,0.111,0.032,0.181,0.095,0.203
					C44.598,72.673,44.673,72.679,44.775,72.679z"/>
				<path fill="#250671" d="M41.858,73.137h-0.397c-0.021,0-0.035-0.018-0.035-0.034v-3.218c0-0.018,0.015-0.034,0.035-0.034h2.037
					c0.017,0,0.034,0.017,0.034,0.034v2.733c0,0.203-0.058,0.338-0.163,0.407c-0.026,0.008-0.04,0.017-0.055,0.022
					c-0.144,0.052-0.398,0.077-0.785,0.077c-0.018,0-0.031-0.012-0.034-0.028c-0.031-0.138-0.074-0.264-0.138-0.378
					c-0.006-0.012-0.006-0.023,0-0.035c0.009-0.011,0.021-0.017,0.031-0.017l0,0c0.244,0.012,0.438,0.012,0.588,0.003
					c0.04-0.018,0.06-0.04,0.063-0.061v-0.645h-1.146v1.138C41.894,73.119,41.879,73.137,41.858,73.137z M41.495,73.068h0.329
					v-1.138c0-0.018,0.018-0.034,0.034-0.034h1.215c0.021,0,0.035,0.017,0.035,0.034v0.682c-0.006,0.055-0.043,0.095-0.112,0.12
					c-0.003,0.003-0.006,0.006-0.009,0.006c-0.137,0.009-0.32,0.009-0.541,0c0.049,0.098,0.083,0.203,0.111,0.318
					c0.355,0,0.604-0.026,0.73-0.072c0.012-0.005,0.029-0.014,0.049-0.022c0.08-0.049,0.124-0.166,0.124-0.344v-2.699h-1.966V73.068
					z M45.756,73.091h-1.018c-0.332,0-0.542-0.063-0.639-0.195c-0.066-0.097-0.101-0.243-0.101-0.44v-1.935
					c0-0.017,0.018-0.034,0.034-0.034h0.424c0.018,0,0.035,0.018,0.035,0.034v0.862c0.593-0.194,1.046-0.393,1.347-0.587
					c0.014-0.012,0.034-0.006,0.043,0.006l0.283,0.326c0.006,0.006,0.009,0.018,0.006,0.029c0,0.011-0.006,0.02-0.018,0.022
					c-0.35,0.198-0.905,0.41-1.661,0.631v0.645c0,0.143,0.054,0.163,0.074,0.172c0.025,0.009,0.086,0.017,0.212,0.017h0.942
					c0.106,0,0.175-0.037,0.204-0.117c0.037-0.092,0.063-0.298,0.077-0.607c0-0.012,0.009-0.022,0.02-0.028
					c0.012-0.006,0.023-0.006,0.035,0.003c0.117,0.08,0.24,0.132,0.369,0.157c0.018,0.003,0.028,0.018,0.028,0.034
					c-0.034,0.45-0.111,0.733-0.234,0.859C46.119,73.042,45.962,73.091,45.756,73.091z M44.07,70.556v1.899
					c0,0.183,0.029,0.317,0.083,0.403c0.084,0.106,0.278,0.164,0.585,0.164h1.018c0.188,0,0.329-0.043,0.415-0.127
					c0.105-0.108,0.178-0.372,0.209-0.784c-0.105-0.026-0.212-0.069-0.313-0.129c-0.014,0.289-0.04,0.473-0.077,0.569
					c-0.028,0.075-0.101,0.164-0.27,0.164h-0.942c-0.108,0-0.187-0.009-0.234-0.026c-0.081-0.028-0.121-0.105-0.121-0.234v-0.671
					c0-0.015,0.009-0.028,0.023-0.031c0.736-0.215,1.286-0.421,1.639-0.61L45.85,70.87c-0.312,0.198-0.779,0.398-1.384,0.594
					c-0.009,0.005-0.02,0.003-0.028-0.003s-0.015-0.018-0.015-0.029v-0.876H44.07z M43.073,71.641h-1.215
					c-0.017,0-0.034-0.017-0.034-0.034v-0.532c0-0.021,0.018-0.038,0.034-0.038h1.215c0.021,0,0.035,0.018,0.035,0.038v0.532
					C43.108,71.624,43.094,71.641,43.073,71.641z M41.894,71.572h1.146v-0.464h-1.146V71.572z M43.073,70.775h-1.215
					c-0.017,0-0.034-0.014-0.034-0.037v-0.492c0-0.021,0.018-0.035,0.034-0.035h1.215c0.021,0,0.035,0.015,0.035,0.035v0.492
					C43.108,70.762,43.094,70.775,43.073,70.775z M41.894,70.704h1.146V70.28h-1.146V70.704z M45.71,70.392h-0.983
					c-0.332,0-0.538-0.063-0.627-0.194c-0.066-0.092-0.101-0.238-0.101-0.436v-1.899c0-0.018,0.018-0.034,0.034-0.034h0.424
					c0.018,0,0.035,0.017,0.035,0.034v0.911c0.553-0.187,0.974-0.358,1.28-0.521c0.015-0.006,0.031-0.003,0.04,0.009l0.29,0.309
					c0.008,0.009,0.011,0.021,0.008,0.029c-0.003,0.011-0.008,0.022-0.02,0.025c-0.381,0.178-0.92,0.37-1.599,0.573v0.559
					c0,0.092,0.022,0.146,0.068,0.163c0.037,0.015,0.106,0.023,0.2,0.023h0.914c0.101,0,0.161-0.034,0.189-0.109
					c0.028-0.08,0.049-0.258,0.061-0.521c0-0.014,0.008-0.025,0.017-0.031c0.012-0.003,0.026-0.003,0.034,0.003
					c0.112,0.077,0.241,0.132,0.385,0.166c0.017,0.003,0.028,0.018,0.025,0.034c-0.031,0.419-0.109,0.677-0.24,0.788
					C46.048,70.352,45.904,70.392,45.71,70.392z M44.07,67.896v1.865c0,0.184,0.029,0.318,0.083,0.398
					c0.075,0.105,0.267,0.163,0.573,0.163h0.983c0.177,0,0.306-0.034,0.39-0.104c0.114-0.097,0.186-0.335,0.215-0.713
					c-0.118-0.029-0.227-0.075-0.324-0.132c-0.012,0.24-0.031,0.398-0.061,0.484c-0.028,0.068-0.094,0.151-0.255,0.151h-0.914
					c-0.103,0-0.177-0.009-0.226-0.025c-0.075-0.026-0.112-0.104-0.112-0.229v-0.584c0-0.015,0.009-0.029,0.023-0.032
					c0.664-0.197,1.191-0.387,1.572-0.559l-0.234-0.255c-0.318,0.166-0.751,0.341-1.318,0.53c-0.009,0.003-0.02,0-0.028-0.006
					s-0.015-0.018-0.015-0.028v-0.926H44.07z M43.523,69.73c-0.006,0-0.009-0.003-0.015-0.003c-0.005-0.006-0.014-0.012-0.017-0.021
					c-0.023-0.063-0.072-0.172-0.141-0.32h-0.015c-0.006,0.002-0.011,0.005-0.014,0.005h-0.086
					c-0.006,0.003-0.012,0.006-0.018,0.006h-0.083c-0.009,0.003-0.012,0.006-0.018,0.006l-0.091,0.003
					c-0.006,0-0.012,0.003-0.015,0.003h-0.086c-0.006,0.003-0.012,0.006-0.018,0.006h-0.083c-0.009,0.003-0.012,0.006-0.017,0.006
					h-0.081c-0.005,0.003-0.011,0.006-0.017,0.006H42.63c-0.006,0.003-0.012,0.005-0.018,0.005h-0.083
					c-0.006,0.003-0.015,0.006-0.018,0.006h-0.077c-0.587,0.032-1.031,0.058-1.28,0.072c-0.018,0.003-0.037-0.012-0.037-0.032
					l-0.04-0.403c0-0.009,0.002-0.021,0.008-0.026c0.006-0.008,0.015-0.011,0.026-0.011c0.154-0.009,0.295-0.015,0.418-0.018
					c0.192-0.364,0.37-0.762,0.519-1.181c0.003-0.017,0.021-0.025,0.037-0.022l0.436,0.1c0.009,0.006,0.018,0.009,0.023,0.021
					c0.003,0.012,0.003,0.021,0,0.028c-0.229,0.502-0.39,0.843-0.49,1.034l1.063-0.045c-0.134-0.227-0.255-0.407-0.357-0.545
					c-0.006-0.009-0.006-0.017-0.006-0.028c0.003-0.009,0.012-0.018,0.022-0.023l0.35-0.135c0.012-0.005,0.029-0.003,0.037,0.012
					c0.385,0.51,0.64,0.942,0.76,1.286c0.006,0.018-0.003,0.035-0.018,0.043l-0.366,0.164C43.532,69.728,43.529,69.73,43.523,69.73z
					 M43.326,69.317h0.046c0.014,0,0.025,0.006,0.031,0.021c0.065,0.135,0.111,0.24,0.141,0.312l0.301-0.137
					c-0.121-0.327-0.361-0.733-0.72-1.215l-0.283,0.108c0.105,0.144,0.227,0.333,0.363,0.562c0.006,0.012,0.006,0.026,0,0.034
					c-0.005,0.012-0.017,0.018-0.028,0.018l-1.181,0.052l0,0c-0.011,0-0.025-0.006-0.028-0.018
					c-0.009-0.009-0.012-0.022-0.003-0.034c0.095-0.172,0.258-0.516,0.499-1.043l-0.361-0.086c-0.152,0.421-0.327,0.816-0.521,1.181
					c-0.006,0.012-0.018,0.017-0.028,0.017c-0.118,0.003-0.253,0.009-0.401,0.018l0.031,0.335c0.255-0.017,0.685-0.043,1.249-0.074
					h0.069c0.006-0.003,0.011-0.003,0.017-0.003h0.083c0.006-0.006,0.015-0.009,0.018-0.009h0.086c0.003,0,0.012-0.006,0.018-0.006
					h0.077c0.006,0,0.012-0.003,0.017-0.003h0.086c0.003-0.005,0.012-0.005,0.018-0.005l0.089-0.003
					c0.006-0.003,0.009-0.003,0.015-0.003h0.086c0.006-0.003,0.011-0.006,0.017-0.006h0.083c0.006-0.006,0.012-0.006,0.018-0.006
					h0.086C43.317,69.32,43.323,69.317,43.326,69.317z"/>
			</g>
			<g>
				<path fill="#250671" d="M62.857,69.945l-0.25,0.344c-0.194-0.189-0.501-0.387-0.928-0.591c-0.015-0.006-0.026-0.011-0.037-0.017
					l0.24-0.31C62.336,69.581,62.662,69.771,62.857,69.945z M62.637,70.873l0.344,0.238c-0.25,0.621-0.524,1.237-0.831,1.842
					l-0.39-0.24C62.086,72.14,62.379,71.526,62.637,70.873z M63.126,68.461l-0.252,0.332c-0.194-0.197-0.495-0.403-0.896-0.624
					c-0.021-0.009-0.04-0.021-0.055-0.026l0.244-0.304C62.619,68.06,62.938,68.269,63.126,68.461z M66.639,71.054h-1.095v1.541
					c0,0.184-0.045,0.301-0.137,0.353c-0.018,0.015-0.037,0.023-0.061,0.032c-0.117,0.043-0.375,0.063-0.782,0.054
					c-0.022-0.129-0.06-0.249-0.117-0.366c0.105,0.006,0.301,0.006,0.59,0.006c0.063-0.012,0.098-0.037,0.101-0.083v-1.536h-1.028
					v-1.979h0.916c0.061-0.27,0.104-0.476,0.124-0.616h-1.373v1.175c-0.003,1.527-0.261,2.656-0.768,3.384
					c-0.101-0.089-0.221-0.166-0.361-0.224c0.444-0.628,0.677-1.562,0.702-2.808c0.006-0.109,0.006-0.227,0.006-0.353v-1.57h3.504
					v0.396h-1.272l0.035,0.003c-0.009,0.025-0.069,0.229-0.181,0.613h1.197V71.054z M64.313,71.375l0.387,0.089
					c-0.206,0.516-0.453,0.928-0.745,1.243c-0.148-0.106-0.261-0.178-0.338-0.218C63.899,72.197,64.132,71.824,64.313,71.375z
					 M64.493,69.406v0.502h1.747v-0.502H64.493z M64.493,70.217v0.505h1.747v-0.505H64.493z M65.932,71.478l0.36-0.154
					c0.333,0.433,0.556,0.805,0.668,1.12c0.006,0.009,0.006,0.012,0.006,0.018l-0.379,0.177c-0.117-0.323-0.329-0.698-0.627-1.123
					C65.948,71.501,65.939,71.486,65.932,71.478z"/>
				<path fill="#250671" d="M64.728,73.068c-0.051,0-0.105,0-0.163,0c-0.017,0-0.031-0.012-0.034-0.029
					c-0.021-0.123-0.061-0.243-0.114-0.355c-0.006-0.011-0.006-0.022,0.003-0.034c0.005-0.012,0.017-0.017,0.028-0.017l0,0
					c0.105,0.005,0.304,0.005,0.59,0.005c0.063-0.011,0.066-0.04,0.066-0.051v-1.496h-0.994c-0.018,0-0.035-0.017-0.035-0.037
					v-1.979c0-0.018,0.018-0.034,0.035-0.034h0.888c0.055-0.235,0.089-0.416,0.112-0.548h-1.298v1.141
					c-0.003,1.527-0.264,2.673-0.777,3.403c-0.002,0.009-0.011,0.015-0.022,0.015c-0.009,0.003-0.021-0.003-0.025-0.009
					c-0.101-0.086-0.215-0.16-0.353-0.218c-0.009-0.006-0.018-0.015-0.018-0.022c-0.006-0.012-0.003-0.021,0.003-0.029
					c0.438-0.618,0.671-1.556,0.696-2.787c0.003-0.109,0.006-0.227,0.006-0.353v-1.57c0-0.017,0.017-0.034,0.034-0.034h3.504
					c0.021,0,0.034,0.018,0.034,0.034v0.396c0,0.018-0.014,0.034-0.034,0.034h-1.212c-0.018,0.055-0.068,0.235-0.157,0.548h1.148
					c0.021,0,0.034,0.017,0.034,0.034v1.979c0,0.021-0.014,0.037-0.034,0.037h-1.06v1.504c0,0.198-0.052,0.324-0.155,0.385
					c-0.02,0.011-0.043,0.022-0.065,0.031C65.255,73.051,65.046,73.068,64.728,73.068z M64.593,72.999
					c0.385,0.006,0.631-0.012,0.742-0.055c0.021-0.005,0.037-0.014,0.055-0.025c0.077-0.046,0.12-0.154,0.12-0.324v-1.541
					c0-0.02,0.015-0.034,0.034-0.034h1.061v-1.911h-1.163c-0.012,0-0.021-0.003-0.026-0.012c-0.008-0.009-0.008-0.02-0.008-0.031
					c0.086-0.283,0.146-0.493,0.172-0.576c-0.018-0.006-0.026-0.02-0.026-0.037c0-0.017,0.018-0.028,0.034-0.028h1.235v-0.327h-3.43
					v1.536c0,0.126-0.003,0.246-0.006,0.355c-0.025,1.223-0.258,2.16-0.685,2.787c0.112,0.052,0.212,0.118,0.301,0.189
					c0.487-0.719,0.736-1.84,0.739-3.332v-1.175c0-0.021,0.018-0.034,0.034-0.034h1.373c0.011,0,0.02,0.003,0.028,0.012
					c0.006,0.005,0.009,0.017,0.006,0.025c-0.021,0.144-0.063,0.344-0.123,0.622c-0.003,0.017-0.018,0.025-0.035,0.025h-0.882v1.911
					h0.994c0.02,0,0.034,0.015,0.034,0.034v1.536c-0.003,0.046-0.025,0.1-0.129,0.117c-0.246,0-0.427,0-0.541-0.003
					C64.545,72.799,64.573,72.896,64.593,72.999z M62.149,72.99c-0.009,0-0.015-0.003-0.021-0.008l-0.39-0.241
					c-0.014-0.009-0.02-0.028-0.011-0.046c0.326-0.57,0.621-1.188,0.876-1.834c0.003-0.011,0.012-0.017,0.023-0.02
					c0.009-0.003,0.02-0.003,0.028,0.006L63,71.082c0.015,0.009,0.021,0.026,0.012,0.04c-0.249,0.628-0.53,1.247-0.834,1.849
					c-0.003,0.009-0.011,0.014-0.02,0.017C62.152,72.987,62.152,72.99,62.149,72.99z M61.806,72.701l0.329,0.203
					c0.292-0.578,0.562-1.178,0.803-1.782l-0.284-0.194C62.404,71.553,62.118,72.148,61.806,72.701z M63.954,72.741
					c-0.009,0-0.014-0.003-0.022-0.006c-0.146-0.105-0.255-0.178-0.333-0.218c-0.008-0.003-0.017-0.012-0.017-0.025
					c-0.003-0.009,0-0.021,0.009-0.029c0.28-0.286,0.513-0.658,0.69-1.103c0.006-0.015,0.025-0.021,0.04-0.021l0.387,0.089
					c0.009,0.006,0.017,0.012,0.022,0.021c0.003,0.009,0.006,0.02,0,0.028c-0.206,0.513-0.458,0.935-0.753,1.252
					C63.972,72.738,63.963,72.741,63.954,72.741z M63.671,72.48c0.071,0.037,0.163,0.098,0.277,0.181
					c0.272-0.301,0.508-0.696,0.705-1.172l-0.321-0.074C64.16,71.836,63.94,72.197,63.671,72.48z M66.587,72.673
					c-0.003,0-0.008,0-0.011,0c-0.009-0.003-0.018-0.012-0.018-0.021c-0.12-0.323-0.332-0.699-0.627-1.117
					c-0.006-0.006-0.012-0.015-0.018-0.023l-0.012-0.014c-0.006-0.009-0.009-0.021-0.006-0.031c0.006-0.012,0.012-0.021,0.021-0.023
					l0.361-0.151c0.014-0.006,0.031,0,0.04,0.011c0.335,0.433,0.562,0.812,0.676,1.126C66.997,72.44,67,72.449,67,72.461
					c0,0.011-0.006,0.025-0.021,0.031l-0.375,0.178C66.602,72.673,66.593,72.673,66.587,72.673z M65.985,71.489
					c0,0,0,0.006,0.003,0.006c0.287,0.406,0.496,0.776,0.622,1.098l0.315-0.149c-0.115-0.31-0.33-0.668-0.647-1.077L65.985,71.489z
					 M66.24,70.756h-1.747c-0.021,0-0.034-0.015-0.034-0.034v-0.505c0-0.02,0.014-0.034,0.034-0.034h1.747
					c0.018,0,0.035,0.015,0.035,0.034v0.505C66.275,70.741,66.258,70.756,66.24,70.756z M64.527,70.688h1.679v-0.436h-1.679V70.688z
					 M62.607,70.323c-0.008,0-0.017-0.003-0.022-0.009c-0.192-0.189-0.502-0.387-0.917-0.584c-0.015-0.006-0.025-0.012-0.037-0.015
					s-0.021-0.012-0.023-0.023c-0.003-0.011,0-0.022,0.006-0.031l0.244-0.31c0.008-0.011,0.028-0.017,0.043-0.011
					c0.458,0.212,0.782,0.4,0.979,0.581c0.015,0.012,0.015,0.031,0.006,0.046l-0.249,0.341c-0.006,0.009-0.015,0.015-0.026,0.015
					C62.61,70.323,62.61,70.323,62.607,70.323z M61.696,69.667c0.404,0.192,0.708,0.387,0.905,0.57l0.207-0.286
					c-0.189-0.164-0.496-0.345-0.914-0.536L61.696,69.667z M66.24,69.942h-1.747c-0.021,0-0.034-0.015-0.034-0.034v-0.502
					c0-0.018,0.014-0.034,0.034-0.034h1.747c0.018,0,0.035,0.017,0.035,0.034v0.502C66.275,69.928,66.258,69.942,66.24,69.942z
					 M64.527,69.873h1.679V69.44h-1.679V69.873z M62.874,68.83c-0.009,0-0.017-0.005-0.025-0.011
					c-0.192-0.195-0.49-0.404-0.886-0.619c-0.022-0.009-0.043-0.021-0.055-0.025c-0.008-0.006-0.017-0.015-0.02-0.026
					c-0.003-0.009,0.003-0.02,0.006-0.028l0.243-0.304c0.009-0.012,0.029-0.015,0.043-0.009c0.453,0.221,0.782,0.436,0.972,0.633
					c0.011,0.012,0.011,0.029,0.003,0.043L62.9,68.816C62.895,68.822,62.886,68.827,62.874,68.83L62.874,68.83z M61.978,68.132
					c0.006,0.002,0.012,0.002,0.017,0.008c0.385,0.21,0.68,0.41,0.874,0.602l0.212-0.274c-0.183-0.184-0.486-0.378-0.905-0.585
					L61.978,68.132z"/>
			</g>
		</g>
	</g>
</g>
</svg>
